127.0.0.1 - - [05/Jan/2024:09:39:07 +0530] "GET / HTTP/1.1" 404 751
0:0:0:0:0:0:0:1 - - [05/Jan/2024:09:39:08 +0530] "GET /EmpWebApp/Login.html HTTP/1.1" 304 -
0:0:0:0:0:0:0:1 - - [05/Jan/2024:09:39:18 +0530] "GET /EmpWebApp/LoginServlet?emailId=HR&password=HR HTTP/1.1" 200 204
0:0:0:0:0:0:0:1 - - [05/Jan/2024:09:39:20 +0530] "GET /EmpWebApp/Logout HTTP/1.1" 304 -
0:0:0:0:0:0:0:1 - - [05/Jan/2024:09:39:23 +0530] "GET /EmpWebApp/LoginServlet?emailId=&password= HTTP/1.1" 200 652
0:0:0:0:0:0:0:1 - - [05/Jan/2024:09:39:28 +0530] "GET /EmpWebApp/LoginServlet?emailId=&password= HTTP/1.1" 200 652
127.0.0.1 - - [05/Jan/2024:11:00:11 +0530] "GET / HTTP/1.1" 404 751
0:0:0:0:0:0:0:1 - - [05/Jan/2024:11:00:12 +0530] "GET /EmpWebApp/Register.html HTTP/1.1" 200 1043
0:0:0:0:0:0:0:1 - - [05/Jan/2024:11:01:03 +0530] "POST /EmpWebApp/Register HTTP/1.1" 200 656
0:0:0:0:0:0:0:1 - - [05/Jan/2024:11:01:19 +0530] "GET /EmpWebApp/LoginServlet?emailId=bharath@gmail.com&password=123 HTTP/1.1" 200 640
0:0:0:0:0:0:0:1 - - [05/Jan/2024:11:01:21 +0530] "GET /EmpWebApp/LoginServlet?emailId=&password= HTTP/1.1" 200 640
0:0:0:0:0:0:0:1 - - [05/Jan/2024:11:01:55 +0530] "GET /EmpWebApp/Login.html HTTP/1.1" 200 524
0:0:0:0:0:0:0:1 - - [05/Jan/2024:11:01:55 +0530] "GET /favicon.ico HTTP/1.1" 404 762
0:0:0:0:0:0:0:1 - - [05/Jan/2024:11:02:12 +0530] "GET /EmpWebApp/LoginServlet?emailId=bharath%40gmail.com&password=123 HTTP/1.1" 200 640
0:0:0:0:0:0:0:1 - - [05/Jan/2024:11:02:16 +0530] "GET /EmpWebApp/LoginServlet?emailId=&password= HTTP/1.1" 200 640
0:0:0:0:0:0:0:1 - - [05/Jan/2024:11:04:03 +0530] "GET /EmpWebApp/LoginServlet?emailId=+bharath%40gamil.com&password=123 HTTP/1.1" 200 640
0:0:0:0:0:0:0:1 - - [05/Jan/2024:11:04:08 +0530] "GET /EmpWebApp/Register.html HTTP/1.1" 200 1043
0:0:0:0:0:0:0:1 - - [05/Jan/2024:11:05:00 +0530] "GET /EmpWebApp/LoginServlet?emailId=bharath%40gamil.com&password=123 HTTP/1.1" 200 225
0:0:0:0:0:0:0:1 - - [05/Jan/2024:11:05:06 +0530] "GET /EmpWebApp/Logout HTTP/1.1" 200 524
127.0.0.1 - - [05/Jan/2024:12:04:27 +0530] "GET / HTTP/1.1" 404 751
0:0:0:0:0:0:0:1 - - [05/Jan/2024:12:04:27 +0530] "GET /EmpWebApp/Login.html HTTP/1.1" 304 -
0:0:0:0:0:0:0:1 - - [05/Jan/2024:12:04:37 +0530] "GET /EmpWebApp/LoginServlet?emailId=HR&password=HR HTTP/1.1" 200 307
0:0:0:0:0:0:0:1 - - [05/Jan/2024:12:04:40 +0530] "GET /EmpWebApp/GetAllEmps HTTP/1.1" 200 876
0:0:0:0:0:0:0:1 - - [05/Jan/2024:12:04:40 +0530] "GET /EmpWebApp/GetAllEmps HTTP/1.1" 200 876
0:0:0:0:0:0:0:1 - - [05/Jan/2024:12:04:51 +0530] "GET /EmpWebApp/GetAllEmps HTTP/1.1" 200 876
127.0.0.1 - - [05/Jan/2024:12:59:56 +0530] "GET / HTTP/1.1" 404 751
0:0:0:0:0:0:0:1 - - [05/Jan/2024:12:59:57 +0530] "GET /EmpWebApp/GetEmpById.html HTTP/1.1" 200 392
0:0:0:0:0:0:0:1 - - [05/Jan/2024:12:59:57 +0530] "GET /favicon.ico HTTP/1.1" 404 762
0:0:0:0:0:0:0:1 - - [05/Jan/2024:13:00:14 +0530] "GET /EmpWebApp/Login.html HTTP/1.1" 200 524
0:0:0:0:0:0:0:1 - - [05/Jan/2024:13:00:22 +0530] "GET /EmpWebApp/LoginServlet?emailId=HR&password=HR HTTP/1.1" 200 433
0:0:0:0:0:0:0:1 - - [05/Jan/2024:13:00:26 +0530] "GET /EmpWebApp/GetEmpById.html HTTP/1.1" 304 -
0:0:0:0:0:0:0:1 - - [05/Jan/2024:13:02:05 +0530] "GET /EmpWebApp/LoginServlet?emailId=HR&password=HR HTTP/1.1" 200 433
0:0:0:0:0:0:0:1 - - [05/Jan/2024:13:02:08 +0530] "GET /EmpWebApp/LoginServlet?emailId=HR&password=HR HTTP/1.1" 200 330
0:0:0:0:0:0:0:1 - - [05/Jan/2024:13:02:10 +0530] "GET /EmpWebApp/GetEmpById.html HTTP/1.1" 304 -
0:0:0:0:0:0:0:1 - - [05/Jan/2024:13:02:15 +0530] "POST /EmpWebApp/GetEmpById HTTP/1.1" 200 417
127.0.0.1 - - [05/Jan/2024:13:05:37 +0530] "GET / HTTP/1.1" 404 751
0:0:0:0:0:0:0:1 - - [05/Jan/2024:13:05:48 +0530] "GET /EmpWebApp/LoginServlet?emailId=HR&password=hR HTTP/1.1" 200 640
0:0:0:0:0:0:0:1 - - [05/Jan/2024:13:05:48 +0530] "GET /EmpWebApp/LoginServlet?emailId=HR&password=hR HTTP/1.1" 200 640
0:0:0:0:0:0:0:1 - - [05/Jan/2024:13:05:51 +0530] "GET /EmpWebApp/LoginServlet?emailId=&password= HTTP/1.1" 200 640
0:0:0:0:0:0:0:1 - - [05/Jan/2024:13:05:55 +0530] "GET /EmpWebApp/LoginServlet?emailId=&password= HTTP/1.1" 200 640
0:0:0:0:0:0:0:1 - - [05/Jan/2024:13:05:57 +0530] "GET /EmpWebApp/Register.html HTTP/1.1" 200 1044
0:0:0:0:0:0:0:1 - - [05/Jan/2024:13:06:20 +0530] "GET /EmpWebApp/LoginServlet?emailId=bharath%40gmail.com&password=123 HTTP/1.1" 200 640
0:0:0:0:0:0:0:1 - - [05/Jan/2024:13:06:42 +0530] "GET /EmpWebApp/LoginServlet?emailId=+bharath%40gamil.com&password=123 HTTP/1.1" 200 640
0:0:0:0:0:0:0:1 - - [05/Jan/2024:13:06:45 +0530] "GET /EmpWebApp/LoginServlet?emailId=&password= HTTP/1.1" 200 640
0:0:0:0:0:0:0:1 - - [05/Jan/2024:13:07:00 +0530] "GET /EmpWebApp/LoginServlet?emailId=HR&password=123 HTTP/1.1" 200 640
0:0:0:0:0:0:0:1 - - [05/Jan/2024:13:07:12 +0530] "GET /EmpWebApp/LoginServlet?emailId=bharath%40gmail.com&password=123 HTTP/1.1" 200 640
0:0:0:0:0:0:0:1 - - [05/Jan/2024:13:07:35 +0530] "GET /EmpWebApp/LoginServlet?emailId=bharath%40gamil.com&password=123 HTTP/1.1" 200 225
0:0:0:0:0:0:0:1 - - [05/Jan/2024:13:07:37 +0530] "GET /EmpWebApp/Logout HTTP/1.1" 200 524
127.0.0.1 - - [05/Jan/2024:15:35:00 +0530] "GET / HTTP/1.1" 404 751
0:0:0:0:0:0:0:1 - - [05/Jan/2024:15:35:01 +0530] "GET /EmpWebApp/Register.html HTTP/1.1" 304 -
0:0:0:0:0:0:0:1 - - [05/Jan/2024:15:35:01 +0530] "GET /favicon.ico HTTP/1.1" 404 762
0:0:0:0:0:0:0:1 - - [05/Jan/2024:15:35:04 +0530] "GET /EmpWebApp/Login.html HTTP/1.1" 304 -
0:0:0:0:0:0:0:1 - - [05/Jan/2024:15:35:14 +0530] "GET /EmpWebApp/LoginServlet?emailId=bharath%40gmail.com&password=123 HTTP/1.1" 200 640
0:0:0:0:0:0:0:1 - - [05/Jan/2024:15:35:30 +0530] "GET /EmpWebApp/LoginServlet?emailId=+bharath%40gamil.com&password=123 HTTP/1.1" 200 640
0:0:0:0:0:0:0:1 - - [05/Jan/2024:15:35:42 +0530] "GET /EmpWebApp/LoginServlet?emailId=bharath%40gamil.com&password=123 HTTP/1.1" 200 225
0:0:0:0:0:0:0:1 - - [05/Jan/2024:15:35:46 +0530] "GET /EmpWebApp/Logout HTTP/1.1" 304 -
