127.0.0.1 - - [04/Jan/2024:11:45:11 +0530] "GET / HTTP/1.1" 404 751
0:0:0:0:0:0:0:1 - - [04/Jan/2024:11:45:12 +0530] "GET /EmpWebApp/LoginPage.html HTTP/1.1" 200 536
0:0:0:0:0:0:0:1 - - [04/Jan/2024:11:45:37 +0530] "GET /EmpWebApp/LoginServlet?emailId=HR&password=HR HTTP/1.1" 200 120
127.0.0.1 - - [04/Jan/2024:11:46:58 +0530] "GET / HTTP/1.1" 404 751
0:0:0:0:0:0:0:1 - - [04/Jan/2024:11:46:58 +0530] "GET /EmpWebApp/LoginPage.html HTTP/1.1" 304 -
0:0:0:0:0:0:0:1 - - [04/Jan/2024:11:47:07 +0530] "GET /EmpWebApp/LoginServlet?emailId=HR&password=HR HTTP/1.1" 200 208
0:0:0:0:0:0:0:1 - - [04/Jan/2024:11:47:09 +0530] "GET /EmpWebApp/Login.html HTTP/1.1" 404 775
127.0.0.1 - - [04/Jan/2024:12:00:15 +0530] "GET / HTTP/1.1" 404 751
0:0:0:0:0:0:0:1 - - [04/Jan/2024:12:00:15 +0530] "GET /EmpWebApp/LoginPage.html HTTP/1.1" 304 -
0:0:0:0:0:0:0:1 - - [04/Jan/2024:12:00:23 +0530] "GET /EmpWebApp/LoginServlet?emailId=HR&password=HR HTTP/1.1" 200 204
0:0:0:0:0:0:0:1 - - [04/Jan/2024:12:00:25 +0530] "GET /EmpWebApp/Logout HTTP/1.1" 404 775
0:0:0:0:0:0:0:1 - - [04/Jan/2024:12:04:06 +0530] "GET /EmpWebApp/LoginPage.html HTTP/1.1" 304 -
0:0:0:0:0:0:0:1 - - [04/Jan/2024:12:04:16 +0530] "GET /EmpWebApp/LoginServlet?emailId=HR&password=HR HTTP/1.1" 200 204
0:0:0:0:0:0:0:1 - - [04/Jan/2024:12:04:18 +0530] "GET /EmpWebApp/Logout HTTP/1.1" 404 775
127.0.0.1 - - [04/Jan/2024:13:09:38 +0530] "GET / HTTP/1.1" 404 751
0:0:0:0:0:0:0:1 - - [04/Jan/2024:13:09:39 +0530] "GET /EmpWebApp/LoginPage.html HTTP/1.1" 200 536
0:0:0:0:0:0:0:1 - - [04/Jan/2024:13:09:54 +0530] "GET /EmpWebApp/LoginServlet?emailId=HR&password=hr HTTP/1.1" 500 87
127.0.0.1 - - [04/Jan/2024:13:15:44 +0530] "GET / HTTP/1.1" 404 751
0:0:0:0:0:0:0:1 - - [04/Jan/2024:13:15:57 +0530] "GET /EmpWebApp/LoginServlet?emailId=HR&password=HR HTTP/1.1" 200 204
0:0:0:0:0:0:0:1 - - [04/Jan/2024:13:16:04 +0530] "GET /EmpWebApp/Logout HTTP/1.1" 404 775
0:0:0:0:0:0:0:1 - - [04/Jan/2024:13:16:13 +0530] "GET /EmpWebApp/Logout HTTP/1.1" 404 775
0:0:0:0:0:0:0:1 - - [04/Jan/2024:13:16:25 +0530] "GET /EmpWebApp/Logout HTTP/1.1" 404 775
0:0:0:0:0:0:0:1 - - [04/Jan/2024:13:17:28 +0530] "GET /EmpWebApp/Logout HTTP/1.1" 404 775
0:0:0:0:0:0:0:1 - - [04/Jan/2024:13:18:19 +0530] "GET /EmpWebApp/Logout HTTP/1.1" 404 775
0:0:0:0:0:0:0:1 - - [04/Jan/2024:13:18:51 +0530] "GET /EmpWebApp/Logout HTTP/1.1" 404 775
0:0:0:0:0:0:0:1 - - [04/Jan/2024:13:18:57 +0530] "GET /EmpWebApp/Logout HTTP/1.1" 404 775
0:0:0:0:0:0:0:1 - - [04/Jan/2024:13:19:56 +0530] "GET /EmpWebApp/LoginPage.html HTTP/1.1" 304 -
0:0:0:0:0:0:0:1 - - [04/Jan/2024:13:20:06 +0530] "GET /EmpWebApp/LoginServlet?emailId=HR&password=HR HTTP/1.1" 200 204
0:0:0:0:0:0:0:1 - - [04/Jan/2024:13:20:07 +0530] "GET /EmpWebApp/Logout HTTP/1.1" 404 775
0:0:0:0:0:0:0:1 - - [04/Jan/2024:13:21:25 +0530] "GET /EmpWebApp/Login.html HTTP/1.1" 200 536
0:0:0:0:0:0:0:1 - - [04/Jan/2024:13:21:36 +0530] "GET /EmpWebApp/LoginServlet?emailId=HR&password=HR HTTP/1.1" 200 204
0:0:0:0:0:0:0:1 - - [04/Jan/2024:13:21:38 +0530] "GET /EmpWebApp/Logout HTTP/1.1" 200 536
0:0:0:0:0:0:0:1 - - [04/Jan/2024:13:22:16 +0530] "GET /EmpWebApp/LoginServlet?emailId=harsha@gmail.com&password=123 HTTP/1.1" 200 224
0:0:0:0:0:0:0:1 - - [04/Jan/2024:13:22:54 +0530] "GET /EmpWebApp/LoginServlet?emailId=harsha@gmail.com&password=123 HTTP/1.1" 200 224
0:0:0:0:0:0:0:1 - - [04/Jan/2024:13:23:11 +0530] "GET /EmpWebApp/LoginServlet?emailId=harsha@gmail.com&password=123 HTTP/1.1" 200 224
0:0:0:0:0:0:0:1 - - [04/Jan/2024:13:23:25 +0530] "GET /EmpWebApp/LoginServlet?emailId=HR&password=HR HTTP/1.1" 200 204
0:0:0:0:0:0:0:1 - - [04/Jan/2024:13:23:34 +0530] "GET /EmpWebApp/LoginServlet?emailId=harsha@gmail.com&password=123 HTTP/1.1" 200 224
