INDEX VERSION 1.130+C:\FSD56\Adv.java\workspace2\.metadata\.plugins\org.eclipse.jdt.core
3211485928.index
1642536134.index
2046926087.index
1431928365.index
173680289.index
2726804700.index
2715850362.index
973652023.index
4160861934.index
683664277.index
2814522370.index
378125904.index
3433509804.index
1703370312.index
826654685.index
2499951800.index
993568740.index
1165219157.index
1124295326.index
3644289849.index
3127728267.index
2956560969.index
3580242784.index
2459721299.index
47742728.index
1758815906.index
2134493170.index
2920508637.index
300795519.index
206676856.index
2346892632.index
3558023186.index
2287467648.index
2471213195.index
430980666.index
3082225932.index
561600363.index
4008146096.index
1959909073.index
3804608541.index
1956736335.index
2008994767.index
2687323615.index
2557432515.index
324093397.index
2017316540.index
1584641300.index
209355004.index
3559423655.index
2889170302.index
